complex
…
dados_meta

# A tibble: 650 × 18
# Groups:   trial, year, location, season, hybrid, technology [650]
   trial            year location season hybrid technology yld_check yld_treated
   <fct>           <dbl> <chr>    <chr>  <chr>  <chr>          <dbl>       <dbl>
 1 2019.Campo Mou…  2019 Campo M… second 10A40… BT             3315.       5218.
 2 2020.Campo Mou…  2020 Campo M… second 10A40… BT             6595        7128.
 3 2019.Londrina.…  2019 Londrina second 10A40… BT             6623        7102 
 4 2020.Londrina.…  2020 Londrina second 10A40… BT             8369.       6053.
 5 2020.Campo Mou…  2020 Campo M… second 20A07… BT             5904        6188 
 6 2020.Londrina.…  2020 Londrina second 20A07… BT             7638.       7893 
 7 2018.Campo Mou…  2018 Campo M… second 20A20… BT             4414        4689.
 8 2018.Londrina.…  2018 Londrina second 20A20… BT             3202.       3243 
 9 2020.Campo Mou…  2020 Campo M… second 20A44… BT             5920.       6973.
10 2020.Londrina.…  2020 Londrina second 20A44… BT             7140        7178.
# ℹ 640 more rows
# ℹ 10 more variables: sd_yld_check <dbl>, sd_yld_treated <dbl>, n_check <int>,
#   n_treated <int>, sev_check <dbl>, sev_treated <dbl>, study_id <chr>,
#   pressao <chr>, yi <dbl>, sei <dbl>

dados_meta |> 
  ungroup() |> 
  count(hybrid) |> 
  arrange(n)

# A tibble: 238 × 2
   hybrid               n
   <chr>            <int>
 1 2B640PW              1
 2 AV 4142              1
 3 GNZ 7210PRO2         1
 4 IPT 3AXG3XM90        1
 5 IPT L3AXLG3XLM90     1
 6 JM 2M55              1
 7 MG 580PW             1
 8 XB 72291             1
 9 k9100                1
10 k9460                1
# ℹ 228 more rows
…
df_all2 = df_all |> 
  group_by(sim,scenario) |> 
  summarise(slope = lm(loss_rel~0+cost)$coefficients) %>% 
  full_join(df_all)

df_all2 = df_all2 %>% 
  group_by(scenario) %>% 
  summarise(mean = mean(slope),
     up_95 = quantile(slope, 0.975),
     low_95 = quantile(slope, 0.025)) %>% 
  full_join(df_all2)

df_all2

# A tibble: 88,000 × 13
   scenario       mean up_95 low_95   sim slope  cost   yld price   net net_ref
   <chr>         <dbl> <dbl>  <dbl> <int> <dbl> <dbl> <dbl> <dbl> <dbl>   <dbl>
 1 High pressure 0.250 0.422  0.147     1 0.299     0 2297. 0.146  335.    335.
 2 High pressure 0.250 0.422  0.147     1 0.299     5 2297. 0.146  330.    335.
 3 High pressure 0.250 0.422  0.147     1 0.299    10 2297. 0.146  325.    335.
 4 High pressure 0.250 0.422  0.147     1 0.299    15 2297. 0.146  320.    335.
 5 High pressure 0.250 0.422  0.147     1 0.299    20 2297. 0.146  315.    335.
 6 High pressure 0.250 0.422  0.147     1 0.299    25 2297. 0.146  310.    335.
 7 High pressure 0.250 0.422  0.147     1 0.299    30 2297. 0.146  305.    335.
 8 High pressure 0.250 0.422  0.147     1 0.299    35 2297. 0.146  300.    335.
 9 High pressure 0.250 0.422  0.147     1 0.299    40 2297. 0.146  295.    335.
10 High pressure 0.250 0.422  0.147     1 0.299    45 2297. 0.146  290.    335.
# ℹ 87,990 more rows
# ℹ 2 more variables: loss_abs <dbl>, loss_rel <dbl>
…
# 3) ganho de rendimento do fungicida
yld_gain <- yld_wide %>%
  mutate(
    gain_yld = treated - check   # ajuste o nome dos níveis se forem outros
  ) %>% 
  full_join(dados2)

yld_gain

# A tibble: 4,026 × 26
   trial     season check treated gain_yld  year location lat   lon   technology
   <fct>     <chr>  <dbl>   <dbl>    <dbl> <dbl> <chr>    <chr> <chr> <chr>     
 1 2019.Cam… second 3315.   5218.    1903   2019 Campo M… –24.… –52.… BT        
 2 2019.Cam… second 3315.   5218.    1903   2019 Campo M… –24.… –52.… BT        
 3 2019.Cam… second 3315.   5218.    1903   2019 Campo M… –24.… –52.… BT        
 4 2019.Cam… second 3315.   5218.    1903   2019 Campo M… –24.… –52.… BT        
 5 2019.Cam… second 3315.   5218.    1903   2019 Campo M… –24.… –52.… BT        
 6 2019.Cam… second 3315.   5218.    1903   2019 Campo M… –24.… –52.… BT        
 7 2020.Cam… second 6595    7128.     533.  2020 Campo M… –24.… –52.… BT        
 8 2020.Cam… second 6595    7128.     533.  2020 Campo M… –24.… –52.… BT        
 9 2020.Cam… second 6595    7128.     533.  2020 Campo M… –24.… –52.… BT        
10 2020.Cam… second 6595    7128.     533.  2020 Campo M… –24.… –52.… BT        
# ℹ 4,016 more rows
# ℹ 16 more variables: application <chr>, plot <dbl>, hybrid <chr>, trat <dbl>,
#   rep <dbl>, yield <dbl>, poli <dbl>, comum <dbl>, branca <dbl>,
#   cercos <dbl>, turc <dbl>, diplo <dbl>, antrac <dbl>, bipol <dbl>,
#   yield2 <dbl>, severity <dbl>
…
k_opt <- ks[which.max(sil_means)]
k_opt 

[1] 2

pc1_df$GROUP <- cutree(clust, k = k_opt)

pc1_groups <- pc1_df %>%
  arrange(PC1) %>%
  rename(cultivar = hybrid,
         grupo = GROUP)

print(pc1_groups)

# A tibble: 239 × 3
   cultivar            PC1 grupo
   <chr>             <dbl> <int>
 1 10A40 TOP         -4.83     1
 2 Exp 942491        -4.59     1
 3 FormulaVIP        -4.59     1
 4 AGRI 178          -4.47     1
 5 MG 711PW          -4.26     1
 6 SX 8555 Vip3      -3.81     1
 7 22S18 TOP3        -3.66     1
 8 CML 269 x CML 311 -3.64     1
 9 AGRI 340          -3.62     1
10 CERES 412         -3.49     1
# ℹ 229 more rows
…
