about – Modeling foliar diseases
…
k_opt <- ks[which.max(sil_means)]
k_opt 

[1] 2

pc1_df$GROUP <- cutree(clust, k = k_opt)

pc1_groups <- pc1_df %>%
  arrange(PC1) %>%
  rename(cultivar = hybrid,
         grupo = GROUP)

print(pc1_groups)

# A tibble: 239 × 3
   cultivar            PC1 grupo
   <chr>             <dbl> <int>
 1 10A40 TOP         -4.83     1
 2 Exp 942491        -4.59     1
 3 FormulaVIP        -4.59     1
 4 AGRI 178          -4.47     1
 5 MG 711PW          -4.26     1
 6 SX 8555 Vip3      -3.81     1
 7 22S18 TOP3        -3.66     1
 8 CML 269 x CML 311 -3.64     1
 9 AGRI 340          -3.62     1
10 CERES 412         -3.49     1
# ℹ 229 more rows
…
